{
    "title": "Notebook",
    "description": "Don't worry, sellotape will hold all your content in place",
    "params": {
        "rounded": 0,
        "shadow": 0,
        "gradient": 2,
        "box_width": "",
        "box_height": "",          
        "text_color": "",
        "font_size": "",
        "font_family": "",
        "bg_color": "",
        "bg_opacity": 1.0,
        "bg_padding_position": "",
        "bg_padding": "",
        "bg_image": "",
        "bg_position": "",
        "bg_repeat": "",
        "bg_size": "",
        "toggler_bg": "",
        "toggler_color": "#333333",
        "toggler_icon": "icomoon",
        "toggler_icomoon": "e006",
        "toggler_icon_gallery_image": "",
        "toggler_icon_custom_image": "",
        "toggler_image": 0,
        "toggler_image_gallery_image": "-1",
        "toggler_font_size": "",
        "toggler_font_family": "",
        "toggler_vertical": 0,
        "toggler_slide": 0,
        "accordion_boxed": 0
    }
}