id,name,category,phone,city,state,country,address,postcode,lat,lng
2,Crown Lift Trucks,Authorized,770-381-4999,Duluth,GA,USA,3060  Premiere Pkwy,30097,33.9991452,-84.0984844
3,Dxp Enterprises Inc,Authorized,713-996-4700,Houston,TX,USA,Po Box 1697,77251,29.7,-95.54
4,Crown Lift Trucks,Authorized,336-291-2500,Colfax,NC,USA,8220 Tyner Rd,27235,36.0858641,-79.9853199
5,Crown Lift Trucks,Authorized,812-477-5511,Evansville,IN,USA,2540 Diego Drive,47715,38.000727,-87.464447
6,Carolina Handling,Authorized,704-357-6273,Charlotte,NC,USA,P O Box 7548,28241,35.1121759,-80.9316098
7,Wiese Planning & Engineering,Authorized,317-554-0411,Indianapolis,IN,USA,8227 Northwest Blvd Ste 100,46241,39.905006,-86.268529
8,Wiese Usa,Authorized,314-997-4444,St Louis,MO,USA,Po Box 270069,63127,38.531543,-90.417231
9,Pacific Material Handling Solutions Inc,Authorized,510-429-0303,Union City,CA,USA,30361 Whipple Road,94587,37.6014677,-122.087722
10,Tynan Equipment Company,Authorized,317-247-8474,Indianapolis,IN,USA,5926 Stockberger Place,46241,39.7200169,-86.2634252
11,Crown Lift Trucks,Authorized,813-628-5500,Tampa,FL,USA,4683 Oak Fair Blvd,33610,27.989859,-82.3536508
12,Pape Material Handling,Authorized,541-689-7407,Eugene,FL,USA,29550 Airport Road,97402,44.112073,-123.181682
13,Wiese Usa,Authorized,815-224-1500,Lasalle,IL,USA,246 Lasalle Road,61301,41.3675885,-89.1168625
14,Crown Lift Trucks,Authorized,309-663-9200,Bloomington,IL,USA,1714 E Hamilton Road,61704,40.4549812,-88.9703628
15,Crown Lift Trucks,Authorized,515-262-6400,Des Moines,IA,USA,5877 Ne Industry Drive,50313,41.667347,-93.593182
16,Crown Lift Trucks,Authorized,513-874-2600,Cincinnati,OH,USA,10685 Medallion Drive,45241,39.2628984,-84.4303396
17,Crown Lift Trucks,Authorized,614-274-7700,Grove City,OH,USA,2100 Southwest Blvd,43123,39.887788,-83.0581764
18,Equipment Depot,Authorized,570-326-3538,Mechanicsburg,PA,USA,741 Independence Avenue,17055,40.2025803,-76.9701966
19,Ase Systems,Authorized,512-832-9821,Austin,TX,USA,9416 Nells Thompson Drive - Suite 113,78758,30.382636,-97.7336725
20,Equipment Depot,Authorized,513-618-6846,Cincinnati,OH,USA,4310 Rossplain Road,45236,39.222876,-84.39021
21,Dak Equipment & Engineering Co,Authorized,630-516-1115,Elmhurst,IL,USA,857 N Larch Avenue,60126,41.9259645,-87.9431122
22,Tectrad,Authorized,281-970-0707,Houston,TX,USA,11201 Neeshaw Drive,77065,29.937505,-95.588374
23,Crown Lift Trucks,Authorized,770-381-4999,Duluth,GA,USA,3060 Premiere Parkway,30097,33.9991452,-84.0984844
24,Equipment Depot Of Illinois Inc.,Authorized,630-665-7200,Itasca,IL,USA,751 Expressway,60143,41.9795832,-88.0247299
25,Miami Industrial Trucks Inc,Authorized,937-293-4194,Dayton,OH,USA,2830 East River Road,45439,39.7132541,-84.2274465
26,Pape Material Handling,Authorized,503-639-8910,Tigard,OR,USA,7000 Sw Sandburg Road,97223,45.4219846,-122.7481436
28,Crown Lift Trucks - Las Vegas,Authorized,702-380-8090,Henderson,NV,USA,141 N. Gibson Rd,89014,36.036991,-115.030593
29,Equipment Depot,Authorized,361-887-8901,Corpus Christi,TX,USA,921 N. Port Ave,78401,27.7994264,-97.413878
30,Western Storage And Handling,Authorized,303-937-8376,Denver,CO,USA,"1630 West Evans Avenue, Unit L",80110,39.6776379,-105.0076214
31,Century Mill Supply Ltd,Authorized,562-941-7004,Santa Fe Springs,CA,USA,12415 Los Nietos Rd,90670,33.95163,-118.0625925
32,Bmh Equipment Inc,Authorized,(916)922-8828,Sacramento,CA,USA,1217 Blumenfeld Drive,95815,38.6037735,-121.4396456
33,Baker Vehicle Systems Inc.,Authorized,330-467-2250,Macedonia,OH,USA,9035 Freeway Drive,44056,41.329567,-81.5152488
34,Printelect,Authorized,252-633-3197,New Bern,NC,USA,Po Box 13216,28561,35.05,-77.06
35,Adobe Equipment,Authorized,713-675-1552,Houston,TX,USA,7607 Wallisville Rd,77220,29.788746,-95.2901909
36,Pape Material Handling,Authorized,831-775-0140,Salinas,CA,USA,500 John Street,93905,36.6699483,-121.6366236
37,Crown Lift Trucks,Authorized,303-344-1000,Aurora,CO,USA,17700 E 32Nd Pl,80011,39.7611702,-104.7810421
38,Conveyorman Inc,Authorized,901-794-5700,Memphis,TN,USA,5700 Shelby Drive,38141,35.021203,-89.87252
39,Crown Lift Trucks,Authorized,859-389-9700,Lexington,KY,USA,1709 Jaggie Fox Way,40511,38.086956,-84.518049
40,Crown Lift Trucks,Authorized,316-942-4400,Wichita,KS,USA,2113 South West Street - Ste 300,67213,37.6561738,-97.3892028
41,Crown Lift Trucks,Authorized,417-862-7411,Springfield,MO,USA,2315 E Chestnut Expressway,65802,37.21209,-93.251211
42,Crown Lift Trucks,Authorized,954-786-8889,Pompano Beach,FL,USA,2971 Center Port Circle,33064,26.2674058,-80.1305441
43,Equipment Depot,Authorized,254-662-4322,Waco,TX,USA,Po Box 20187,76702,31.509928,-97.1861821
44,Mh Equipment,Authorized,513-681-2200,Cincinnati,OH,USA,106 Circle Freeway Drive,45246,39.305611,-84.474297
45,Engineered Handling Inc,Authorized,704-333-4446,Charlotte,NC,USA,200 E Tremont Ave,28203,35.209387,-80.85951
46,Easy Lift Equipment Co,Authorized,302-737-7000,Newark,DE,USA,2 Mill Park Ct,19713,39.6853924,-75.700922
47,Material Handling Solutions,Authorized,956-465-4177,Mission,TX,USA,3507 San Angelo,78572,26.15918,-98.295112
48,Industrial Ergonomics Inc,Authorized,612-532-6274,Lakeville,MN,USA,Po Box 518,55044,44.6496868,-93.24272
49,Pape Material Handling,Authorized,541-689-7407,Eugene,OR,USA,355 Goodpasture Island Rd,97401,44.0732075,-123.1114031
50,S & S Supplies & Solutions,Authorized,925-313-0360,Martinez,CA,USA,Po Box 1111,94553,38.0193657,-122.1341321
51,Offe Technology,Authorized,03-9032050,Rosh-Haayin,Israel,Israel,22 Hamelacha St,48091,32.1069619,34.9692397
52,Crown Lift Trucks,Authorized,909-923-8357,Ontario,CA,USA,4250 E Greystone Drive,91761,34.0267692,-117.5592893
53,Mann Lake Ltd,Authorized,218-675-7407,Hackensack,MN,USA,501 S 1St Street,56452,46.9217252,-94.5235768
54,Crown Lift Trucks,Authorized,817-419-4000,Arlington,TX,USA,4000 Scientific Drive,76014,32.679142,-97.0746007
55,Idg-Industrial Distribution Group,Authorized,Belmont,NC,USA,Po Box 1127,28012,35.2429175,-81.037297,
56,Toyota Material Handling Northeast,Authorized,610-337-8300,Norristown,PA,USA,2564 Industry Lane,19403,40.1518625,-75.370998
57,Welch Equipment Company Inc,Authorized,303-394-6708,Denver,CO,USA,5025 Nome Street,80239,39.7886957,-104.853194
58,Material Handling Inc,Authorized,615-445-4550,Nashville,TN,USA,201 Crutchfield Avenue,37210,36.136506,-86.731003
59,Fairchild Equipment,Authorized,920-494-8726,Green Bay,WI,USA,2140 Hutson Road,54303,44.529674,-88.0829115
60,Equipment Depot,Authorized,717-560-3131,Lancaster,PA,USA,1929 La Salle Ave,17601,40.0466079,-76.252311
61,Crown Lift Trucks,Authorized,901-396-7000,Memphis,TN,USA,3952 Willow Lake Road Bldg 5,38118,35.0368926,-89.8894745
62,Crown Lift Trucks,Authorized,281-985-0300,Houston,TX,USA,1650 N Sam Houston Pkwy E,77032,29.9375168,-95.36086
63,Bernies Equipment Company,Authorized,608-526-3363,Holmen,WI,USA,307 North Star Road,54636,43.963654,-91.264422
64,Pape Material Handling,Authorized,509-536-7300,Spokane Valley,WA,USA,5518 E Broadway,99212,47.6639196,-117.329946
65,Crown Lift Trucks,Authorized,608-783-6300,Lacrosse,WI,USA,2300 Cunningham Street,54603,43.855941,-91.220439
66,Atlas Toyota Material Handling,Authorized,708-563-0707,Schiller Park,IL,USA,5050 River Road,60176,41.9705549,-87.8625646
67,Crown Lift Trucks,Authorized,734-414-0160,Plymouth,MI,USA,43896 Plymouth Oaks Blvd,48170,42.3847077,-83.4727317
68,Equipment Depot,Authorized,812-425-8164,Evansville,IN,USA,922 E Division St,47711,37.9775296,-87.5492975
70,Southern States Coop Inc,Authorized,804-281-1000,Richmond,VA,USA,Po Box 26234,23260,37.56,-77.45
71,Mass,Authorized,519-452-7770,London,ON,Canada,331 Sovereign Road,N6M1A6,42.9901318,-81.1400704
73,Equipment Depot,Authorized,859-266-0483,Erlanger,KY,USA,1342 Jamike Avenue,41018,39.0394808,-84.6276899
74,Hagemeyer North America,Authorized,281-500-5000,Alpharetta,GA,USA,Caller Service 1819,30023,34.04,-84.24
75,T S C Industries Inc,Authorized,615-440-7173,Brentwood,TN,USA,200 Powell Place,37027,36.0357343,-86.8115825
76,Vesco Toyotalift,Authorized,828-322-2105,Hickory,NC,USA,Po Drawer 1990,28603,35.7313793,-81.340794
77,Crown Lift Trucks Hayward,Authorized,510-471-7272,Hayward,CA,USA,1400 Crocker Avenue,94544,37.616332,-122.055279
78,Lift Truck Service Center,Authorized,501-568-3330,Little Rock,AR,USA,12829 Interstate 30,72209,34.6450869,-92.43016
79,Beaton Industrial,Authorized,315-797-9346,Utica,NY,USA,6083 Trenton Road,13502,43.155989,-75.215582
80,Wiese Planning & Engineering,Authorized,314-997-4444,St Louis,MO,USA,1435 Woodson Rd,63132,38.67774,-90.358518
81,Dillon Supply Co,Authorized,704-332-6151,Charlotte,NC,USA,2127 Wilkinson Blvd,28232,35.2228931,-80.875228
82,Crown Lift Trucks,Authorized,201-337-1211,Oakland,NJ,USA,104 Bauer Dr,7436,41.004148,-74.24181
83,Key Material Handling Equip,Authorized,516-777-1001,Brooklyn,NY,USA,4606 3Rd Ave,11220,40.6499175,-74.0129057
84,Crown Lift Trucks,Authorized,781-933-3366,Woburn,MA,USA,2 Presidential Way,1801,42.5259644,-71.143633
85,Contact Attachments,Authorized,44 1686 611205,Newtown Powys Wales,UK,UK,Unit E Mochdre Ind Estate,SY16 4LE,52.5030242,-3.3370672
86,Crown Lift Trucks,Authorized,260-484-0055,Ft Wayne,IN,USA,1919 Research Drive,46808,41.126959,-85.167561
87,Crown Lift Trucks,Authorized,704-721-4000,Concord,NC,USA,8401 Westmoreland Dr,28027,35.404992,-80.712984
88,Material Flow & Conveyor,Authorized,503-684-1613,Donald,OR,USA,Po Box 550,97020,45.2228229,-122.8395263
89,Crown Lift Trucks,Authorized,516-822-7806,Hicksville,NY,USA,5 Charlotte Ave Ste #1,11801,40.7648223,-73.5472637
90,Buffalo Materials Hdlg,Authorized,716-849-6370,Depew,NY,USA,125 Taylor Drive,14043,42.915144,-78.721707
91,Pauli Cooling Systems,Authorized,920-261-9333,Watertown,WI,USA,Po Box 471,53094,43.1483171,-88.7301525
92,Crown Lift Trucks,Authorized,724-696-3533,Mount Pleasant,PA,USA,300 Westec Drive,15666,40.188745,-79.565686
93,Pape Material Handling,Authorized,509-248-5636,Yakima,WA,USA,909 South 18Th Street,98901,46.591101,-120.47666
94,Max Lift Inc,Authorized,405-942-5438,Oklahoma City,OK,USA,200 S Oklahoma Ave #403,73104,35.4635687,-97.50999
95,Lilly Company,Authorized,901-363-6000,Memphis,TN,USA,3613 Knight Arnold Rd,38118,35.0628816,-89.9422549
96,Advanced Equipment,Authorized,704-527-3141,Charlotte,NC,USA,Po Box 11382,28220,35.1758222,-80.8509669
97,Crown Lift Trucks,Authorized,801-254-5770,Salt Lake City,UT,USA,3143 South 1030 West,84119,40.7051559,-111.9205631
98,Solution Dynamics,Authorized,262-521-5730,Brookfield,WI,USA,Po Box 866,53008,43.06,-88.11
99,Black Equipment Company,Authorized,812-477-6481,Evansville,IN,USA,1187 Burch Dr,47725,38.0455795,-87.5412411
100,Garlands Inc,Authorized,612-333-3469,Minneapolis,MN,USA,2501 26Th Avenue S,55406,44.9568216,-93.2341352
101,Crown Lift Trucks,Authorized,815-773-0022,Joliet,IL,USA,4100 Olympic Blvd,60431,41.4939292,-88.1812644
102,Pape Material Handling,Authorized,925-521-5405,Concord,CA,USA,210 Mason Circle,94520,38.0107854,-122.0405485
103,L K Goodwin Co Inc,Authorized,401-781-5526,Providence,RI,USA,890 Broad St,2907,41.799944,-71.416449
104,Wisconsin Lift Truck Corp,Authorized,262-781-8010,Brookfield,WI,USA,Po Box 430,53008,43.06,-88.11
105,Motion Savers Inc,Authorized,513-742-1000,Mason,OH,USA,8573 Mason Montgomery Rd Ste40,45040,39.3143439,-84.314489
106,Badger Toyotalift,Authorized,262-782-0220,New Berlin,WI,USA,16805 W Victor Road,53151,42.9862531,-88.1233145
107,Dillon Supply Co,Authorized,919-832-7771,Raleigh,NC,USA,Po Box 14535,27602,35.7756018,-78.6403987
108,Fitzgerald Equipment Inc,Authorized,815-397-7050,Rockford,IL,USA,4650 Boeing Dr,61109,42.2145513,-89.0888437
109,Engineered Products Of Oregon,Authorized,206-394-3300,Seattle,WA,USA,9883 40Th Ave South,98118,47.5110365,-122.2824366
110,W D Matthews Machinery,Authorized,207-784-9311,Auburn,ME,USA,901 Center Street,4210,44.1328679,-70.2248711
111,Toyota Lift Of Minnesota,Authorized,763-425-9066,Brooklyn Park,MN,USA,8601 Xylon Court North,55445,45.1110151,-93.3870003
112,Equipment Depot Of Dallas Inc,Authorized,513-891-0600,Irving,TX,USA,1400 South Loop 12,75060,32.7991176,-96.9204262
113,Crown Lift Trucks,Authorized,262-695-0950,Waukesha,WI,USA,N16 W23120 Stoneridge Drive,53188,43.0514102,-88.2122264
114,G & H Distributing,Authorized,605-334-7131,Sioux Falls,SD,USA,900 W Russell St,57104,43.5644127,-96.7388249
116,Rapids Wholesale Equipment Co,Authorized,319-447-1670,Marion,IA,USA,6201 South Gateway Drive,52302,42.0314706,-91.5444369
117,Crown Lift Trucks,Authorized,651-645-8668,St Paul,MN,USA,860 Vandalia St,55114,44.9667965,-93.1881574
118,Crown Lift Trucks,Authorized,937-454-7545,Vandalia,OH,USA,750 Center Drive,45377,39.8839025,-84.1864841
119,Brodie Toyota-Lift,Authorized,800-828-2804,Lawrence,MA,USA,10 Ballard Road,1843,42.6860949,-71.1853291
120,Crown Lift Trucks,Authorized,229-388-9500,Tifton,GA,USA,48 Union Industrial Way,31794,31.4119776,-83.5204253
121,Crown Lift Trucks,Authorized,813-628-5500,Orlando,FL,USA,404 Sunport Lane,32809,28.4469363,-81.3695783
122,Skarnes Inc,Authorized,763-231-3600,Plymouth,MN,USA,2100 Niagara Lane N,55447,45.0013093,-93.4704601
123,Crown Lift Trucks,Authorized,608-258-9700,Madison,WI,USA,5401 Voges Road,53718,43.040273,-89.2872577
124,Crown Lift Trucks,Authorized,916-373-8980,West Sacramento,CA,USA,1400 Enterprise Blvd Ste F,95691,38.5705995,-121.5795075
125,Tectrad,Authorized,281-970-0707,Houston,TX,USA,11201 Neeshaw Drive,77065,24.849068,46.573368
126,Sunstream Industries Pte Ltd,Authorized,65 6795 7555,Singapore,SP,SIN,18 Tuas South Street 5,637796,1.3521,103.8198
127,Material Flow,Authorized,907-868-4725,Anchorage,AK,USA,6112 Petersburg St,99507,61.2180556,-149.9002778
128,Motion Industries,Authorized,(630) 627-4605,Addison,IL,USA,1790 West Cortland Court,60101,41.9102105,-88.0317759
129,Motion Industries,Authorized,(309) 827-0436,Bloomington,IL,USA,14015 Carole Drive,61705,40.4877226,-89.075152
130,Motion Industries,Authorized,(815) 939-4466,Bourbonnais,IL,USA,811 Larry Power Road,60914,41.176774,-87.858172
131,Motion Industries,Authorized,(217) 352-8550,Champaign,IL,USA,41 East Kenyon Road,61820,40.132956,-88.2415259
132,Motion Industries,Authorized,(708) 391-2473,Chicago,IL,USA,4901 W. 39Th St,60804,41.8218288,-87.7523756
133,Motion Industries,Authorized,(312) 850-3700,Chicago,IL,USA,1361 S. Jefferson Street,60607,41.8643196,-87.6416873
134,Motion Industries,Authorized,(708) 754-6300,Chicago Heights,IL,USA,100 Halsted Street,60411,41.5309623,-87.635929
135,Motion Industries,Authorized,(708) 354-5900,Countryside,IL,USA,5444 East Avenue,60525,41.790961,-87.859726
136,Motion Industries,Authorized,(217) 442-8800,Danville,IL,USA,1250 N Michigan Avenue,61834,40.1454397,-87.5833177
137,Motion Industries,Authorized,(217) 877-3400,Decatur,IL,USA,1620 Hubbard Avenue,62526,39.8827633,-88.9345873
138,Motion Industries,Authorized,(309) 694-6214,East Peoria,IL,USA,3113 North Main Street,61611,40.7018278,-89.5383997
139,Motion Industries,Authorized,(847) 697-3100,Elgin,IL,USA,786 Church Road,60123,42.0737614,-88.2984372
140,Motion Industries,Authorized,(847) 616-4001,Elk Grove Village,IL,USA,2380 United Lane,60007,41.9923256,-87.946538
141,Motion Industries,Authorized,(847) 623-8770,Gurnee,IL,USA,4250 Lee Avenue,60031,42.3801846,-87.9080903
142,Motion Industries,Authorized,(815) 654-1154,Machesney Park,IL,USA,9926 North Alpine Road,61115,42.374858,-89.024606
143,Motion Industries,Authorized,(217) 235-7151,Mattoon,IL,USA,2120 Charleston Avenue,61938,39.4808042,-88.3814409
144,Motion Industries,Authorized,(708) 344-4433,Melrose Park,IL,USA,1331 N. 31St Avenue,60160,41.8998584,-87.8709423
145,Motion Industries,Authorized,(630) 897-8652,Montgomery,IL,USA,1451 Aucutt Road,60538,41.7298157,-88.3559992
146,Motion Industries,Authorized,(618) 241-9500,Mt. Vernon,IL,USA,800 Dogwood Drive,62864,38.2934674,-88.9025756
147,Motion Industries,Authorized,(815) 223-7800,Peru,IL,USA,2017 Fourth Street,61354,41.327608,-89.1320688
148,Motion Industries,Authorized,(217) 222-6168,Quincy,IL,USA,312 State Street,62301,39.9263815,-91.4111355
149,Motion Industries,Authorized,(815) 725-6720,Rockdale,IL,USA,1028 Moen Avenue,60436,41.5048858,-88.1229851
150,Motion Industries,Authorized,(815) 874-9461,Rockford,IL,USA,3483 Lonergan Drive,61109,42.2242231,-89.0275813
151,Motion Industries,Authorized,(217) 523-8337,Springfield,IL,USA,3761 Sangamon Avenue,62707,39.8314277,-89.59756
152,Motion Industries,Authorized,(630) 231-4453,West Chicago,IL,USA,333 Charles Ct. Unit 121,60185,41.8806729,-88.2299244
153,Motion Industries,Authorized,(847) 459-7727,Wheeling,IL,USA,222 Marquardt Drive,60090,42.1166493,-87.9104626
154,Motion Industries,Authorized,(812) 379-2329,Columbus,IN,USA,1589 Southpark Court Suite A,47201,39.1821547,-85.8927974
155,Motion Industries,Authorized,(765) 362-7227,Crawfordsville,IN,USA,1936 Indianapolis Road,47933,40.0366302,-86.8675483
156,Motion Industries,Authorized,(574) 293-4343,Elkhart,IN,USA,4709 Wyland Drive,46516,41.691166,-85.898119
157,Motion Industries,Authorized,(812) 423-7701,Evansville,IN,USA,2544 Mjm Industrial Drive,47715,38.000079,-87.477204
158,Motion Industries,Authorized,(260) 422-6451,Fort Wayne,IN,USA,3333 E. Washington Blvd.,46803,41.0745102,-85.0946182
159,Motion Industries,Authorized,(219) 938-9200,Gary,IN,USA,7401 East Melton Road,46403,41.594822,-87.247414
160,Motion Industries,Authorized,(219) 931-3010,Hammond,IN,USA,3620 Calumet Avenue,46320,41.6476807,-87.5093836
161,Motion Industries,Authorized,(317) 248-2100,Indianapolis,IN,USA,4410 Sam Jones Expressway,46241,39.7331954,-86.2353957
162,Motion Industries,Authorized,(260) 347-4135,Kendallville,IN,USA,2154 Production Road,46755,41.441379,-85.229974
163,Motion Industries,Authorized,(765) 453-2550,Kokomo,IN,USA,4112 Cartwright Drive,46902,40.4388478,-86.1227842
164,Motion Industries,Authorized,(765) 448-6600,Lafayette,IN,USA,30 Creasy Court,47905,40.395917,-86.839578
165,Motion Industries,Authorized,(219) 362-8526,Laporte,IN,USA,24 Industrial Pkwy,46350,41.62367,-86.676305
166,Motion Industries,Authorized,(765) 288-4474,Muncie,IN,USA,2105 W Godman Ave,47303,40.1894246,-85.4107049
167,Motion Industries,Authorized,(765) 966-3528,Richmond,IN,USA,1325 Rich Road,47374,39.855899,-84.921802
168,Motion Industries,Authorized,(574) 291-0770,South Bend,IN,USA,3901 South Main Street,46614,41.6340809,-86.2520429
169,Motion Industries,Authorized,(812) 232-8344,Terre Haute,IN,USA,2824 South State Road 63,47802,39.4315572,-87.4299064
170,Motion Industries,Authorized,(574) 268-0181,Warsaw,IN,USA,129 Enterprise Drive,46580,41.258473,-85.85539
171,Motion Industries,Authorized,(515) 965-1065,Ankeny,IA,USA,1325 Sw Ordnance Road Suite A,50023,41.7234332,-93.619282
172,Motion Industries,Authorized,(319) 362-9940,Cedar Rapids,IA,USA,1901 16Th Ave Sw,52404,41.9619748,-91.6993463
173,Motion Industries,Authorized,(563) 391-8888,Davenport,IA,USA,5620 Carey Ave,52807,41.5792246,-90.5589986
174,Motion Industries,Authorized,(563) 556-3022,Dubuque,IA,USA,7680 Commerce Park,52002,42.493328,-90.776985
175,Motion Industries,Authorized,(515) 573-5753,Fort Dodge,IA,USA,1528-A Street West,50501,42.4900269,-94.207466
176,Motion Industries,Authorized,(319) 372-6611,Fort Madison,IA,USA,2330 263Rd Avenue,52627,40.6184634,-91.4066632
177,Motion Industries,Authorized,(563) 263-3452,Muscatine,IA,USA,2011 Grandview Avenue,52761,41.396399,-91.080346
178,Motion Industries,Authorized,(641) 682-5401,Ottumwa,IA,USA,710 South Madison Avenue,52501,40.996424,-92.4097138
179,Motion Industries,Authorized,(712) 258-0595,Sioux City,IA,USA,1121 Zenith Drive,51103,42.4943651,-96.4248274
180,Motion Industries,Authorized,(319) 235-7167,Waterloo,IA,USA,1512 Falls Avenue,50701,42.4981499,-92.3638278
181,Motion Industries,Authorized,(269) 926-7216,Benton Harbor,MI,USA,2450 S M139 Suite B,49022,42.0787283,-86.4361871
182,Motion Industries,Authorized,(906) 786-8110,Escanaba,MI,USA,1814 North Lincoln Road,49829,45.7681647,-87.0795282
183,Motion Industries,Authorized,(616) 791-9770,Grand Rapids,MI,USA,2570 Walker Nw,49544,43.011061,-85.721965
184,Motion Industries,Authorized,(517) 788-6700,Jackson,MI,USA,2332 East High Street,49203,42.2330091,-84.3716269
185,Motion Industries,Authorized,(269) 381-1540,Kalamazoo,MI,USA,3321 E. Cork St.,49001,42.259803,-85.5387695
186,Motion Industries,Authorized,(906) 774-1100,Kingsford,MI,USA,821 East Blvd.,49802,45.801616,-88.077373
187,Motion Industries,Authorized,(517) 322-0540,Lansing,MI,USA,2930 S. Creyts Road,48917,42.6991343,-84.6423802
188,Motion Industries,Authorized,(734) 261-4920,Livonia,MI,USA,33801 Schoolcraft Rd,48150,42.381609,-83.3775467
189,Motion Industries,Authorized,(231) 845-6256,Ludington,MI,USA,5140 W. Progress Drive,49431,43.9393197,-86.4073959
190,Motion Industries,Authorized,(248) 583-8600,Madison Heights,MI,USA,1700 East Avis Drive,48071,42.5276847,-83.0893287
191,Motion Industries,Authorized,(989) 771-2270,Saginaw,MI,USA,3345 E Washington,48601,43.4511662,-83.8982957
192,Motion Industries,Authorized,(734) 946-3788,Taylor,MI,USA,12656 Delta Street,48180,42.2136505,-83.2760836
193,Motion Industries,Authorized,(231) 929-0074,Traverse City,MI,USA,2815 Cass Road Suite D2,49684,44.7254594,-85.6258547
194,Motion Industries,Authorized,(218) 628-2825,Duluth,MN,USA,3009 West Superior,55806,46.75828,-92.136184
195,Motion Industries,Authorized,(952) 828-0800,Eden Prairie,MN,USA,7161 Shady Oak Road,55344,44.8741732,-93.4030227
196,Motion Industries,Authorized,(507) 345-7856,Mankato,MN,USA,20 Good Counsel Drive,56001,44.18605,-93.9843289
197,Motion Industries,Authorized,(507) 532-0198,Marshall,MN,USA,425 North 7Th Street,56258,44.455951,-95.793386
198,Motion Industries,Authorized,(218) 749-8663,Mountain Iron,MN,USA,8405 Enterprise Dr North,55768,47.520215,-92.57212
199,Motion Industries,Authorized,(651) 631-2430,St. Paul,MN,USA,2580 North Cleveland Ave.,55113,45.0191593,-93.1859143
200,Motion Industries,Authorized,(320) 656-1111,Waite Park,MN,USA,3050 Third Street South,56387,45.548304,-94.2580318
201,Motion Industries,Authorized,(573) 814-0654,Columbia,MO,USA,4109 Waco Road Suite B,65202,39.0120211,-92.27518
202,Motion Industries,Authorized,(314) 770-2600,Earth City,MO,USA,13724 Shoreline Court E.,63045,38.7680867,-90.4646316
203,Motion Industries,Authorized,(816) 326-6362,Independence,MO,USA,13000 East 35Th St,64055,39.0559076,-94.3782008
204,Motion Industries,Authorized,(816) 587-8844,Riverside,MO,USA,628 Nw Platte Valley Dr.,64150,39.1727721,-94.6342899
205,Motion Industries,Authorized,(660) 826-5661,Sedalia,MO,USA,1700 W Broadway Blvd #A,65301,38.7054138,-93.2484172
206,Motion Industries,Authorized,(417) 862-5300,Springfield,MO,USA,240-A South Union,65802,37.206852,-93.232741
207,Motion Industries,Authorized,(417) 781-0010,Webb City,MO,USA,"1703 Falcon Rd, Suite D",64870,37.1375627,-94.4936983
208,Motion Industries,Authorized,(740) 775-1226,Chillicothe,OH,USA,97 North Park Drive,45601,39.4060982,-82.9586305
209,Motion Industries,Authorized,(513) 533-4900,Cincinnati,OH,USA,10823 Joslyn Drive,45242,39.2595439,-84.3684076
210,Dayton Supply And Tool,Authorized,(513) 489-3588,Cincinnati,OH,USA,7199 East Kemper Road,45249,39.2790181,-84.3587178
211,Motion Industries,Authorized,(216) 398-2200,Cleveland,OH,USA,4620 Hinckley Ind Prkwy,44109,41.4275071,-81.6809462
212,Motion Industries,Authorized,(614) 444-3030,Columbus,OH,USA,1666 Integrity Drive East,43209,39.9347314,-82.9360419
213,Motion Industries,Authorized,(937) 236-7711,Dayton,OH,USA,7400 Webster Street,45414,39.853234,-84.18128
214,Dayton Supply And Tool,Authorized,(937) 461-4550,Dayton,OH,USA,507 East First Street,45402,39.7643742,-84.1835111
215,Motion Industries,Authorized,(419) 784-4013,Defiance,OH,USA,7562 State Route 66 N,43512,41.3328341,-84.3608439
216,Motion Industries,Authorized,(419) 424-1003,Findlay,OH,USA,231 Stanford Parkway,45840,41.044351,-83.674427
217,Motion Industries,Authorized,(740) 687-0405,Lancaster,OH,USA,700 South Ewing Street,43130,39.7045864,-82.5775467
218,Paragon Services & Supply,Authorized,(419) 224-1988,Lima,OH,USA,3945 Stewart Road,45801,40.795737,-84.0708609
219,Motion Industries,Authorized,(937) 644-1613,Marion,OH,USA,1201 Cheney Ave,43302,40.565976,-83.142505
220,Motion Industries,Authorized,(937) 644-1613,Marysville,OH,USA,1005 Delaware Avenue,43040,40.2359889,-83.352177
221,Dayton Supply And Tool,Authorized,(740) 392-2100,Mt. Vernon,OH,USA,1480 Industrial Park Dr.,43050,40.3623708,-82.4822917
222,Motion Industries,Authorized,(330) 305-1991,North Canton,OH,USA,4013 A Applegrove,44720,40.8904608,-81.4213991
223,Motion Industries,Authorized,(937) 778-1905,Piqua,OH,USA,8580 Industry Pk Drive,45356,40.161264,-84.23342
224,Motion Industries,Authorized,(419) 625-3432,Sandusky,OH,USA,3505 Venice Road,44870,41.4413891,-82.7487061
225,Motion Industries,Authorized,(419) 726-7422,Toledo,OH,USA,6010 Skyview Drive,43612,41.7264679,-83.5355092
226,Meier Transmission,Authorized,(216) 881-0444,Valley View,OH,USA,"6180 Halle Dr, Ste M",44125,41.390579,-81.617756
227,Motion Industries,Authorized,(920) 731-4121,Appleton,WI,USA,2222 Nordale Drive,54914,44.2870149,-88.441913
228,Motion Industries,Authorized,(715) 833-2440,Eau Claire,WI,USA,4075 Mcintyre Avenue,54703,44.8661559,-91.464695
229,Motion Industries,Authorized,(920) 923-7500,Fond Du Lac,WI,USA,695 Sullivan Drive,54935,43.7656319,-88.472581
230,Motion Industries,Authorized,(920) 983-6604,Green Bay,WI,USA,3091 Market Street,54304,44.465234,-88.083384
231,Motion Industries,Authorized,(608) 754-4199,Janesville,WI,USA,"1620 Newport Ave, Ste 190",53545,42.7187386,-89.0033999
232,Motion Industries,Authorized,(608) 785-1200,La Crosse,WI,USA,2724 Commerce Street,54603,43.86088,-91.226987
233,Motion Industries,Authorized,(608) 221-3328,Madison,WI,USA,2125 S. Stoughton Road,53716,43.0674541,-89.309209
234,Motion Industries,Authorized,(715) 732-1714,Marinette,WI,USA,2730 Woleske Road,54143,45.082669,-87.649704
235,Motion Industries,Authorized,(608) 742-5129,Portage,WI,USA,1615 Ladawn Drive,53901,43.5623558,-89.4970257
236,Motion Industries,Authorized,(262) 554-0110,Racine,WI,USA,2410 Norwood Court,53403,42.685492,-87.808464
237,Motion Industries,Authorized,(920) 208-5600,Sheboygan,WI,USA,3669 Enterprise Drive,53083,43.784856,-87.760362
238,Motion Industries,Authorized,(262) 896-3880,Waukesha,WI,USA,W229 N 1687 Westwood Dr Unit C,53186,43.0549016,-88.2037157
239,Motion Industries,Authorized,(715) 848-2994,Wausau,WI,USA,7130 Packer Drive,54401,44.951338,-89.725968
240,Motion Industries,Authorized,(414) 649-2400,West Allis,WI,USA,2006 S 55Th St,53219,43.0080585,-87.9814102
241,Motion Industries,Authorized,(855) 223-4551,Birmingham,AL,USA,2504 C2 First Pl West,35204,33.5388928,-86.839322
242,Motion Industries,Authorized,(205) 251-7522,Birmingham,AL,USA,824 North 31St Street,35203,33.5290113,-86.7956107
243,Motion Industries,Authorized,(205) 251-3231,Birmingham,AL,USA,824 No 31St St,35203,33.5290113,-86.7956107
244,Motion Industries,Authorized,(251) 867-6363,Brewton,AL,USA,31191 Hwy 31,36426,31.0706746,-87.1357056
245,Motion Industries,Authorized,(256) 355-0492,Decatur,AL,USA,226 Woodall Road S.W.,35601,34.614516,-87.051563
246,Motion Industries,Authorized,(334) 287-0611,Demopolis,AL,USA,179 N. Industrial Park Dr,36732,32.477364,-87.8328342
247,Motion Industries,Authorized,(334) 794-2747,Dothan,AL,USA,1950 Wise Drive,36303,31.256163,-85.395385
248,Motion Industries,Authorized,(256) 543-3441,Gadsden,AL,USA,111 South 1St Street,35901,34.010902,-86.000623
249,Motion Industries,Authorized,(256) 858-5020,Huntsville,AL,USA,5848 Research Park Blvd. Suite 300,35806,34.7738757,-86.6725145
250,Motion Industries,Authorized,(205) 957-5138,Irondale,AL,USA,1605 Alton Road,35210,33.5519791,-86.6624476
251,Motion Industries,Authorized,(251) 661-7800,Mobile,AL,USA,825 Lakeside Drive,36693,30.6526283,-88.1276995
252,Motion Industries,Authorized,(251) 743-4814,Monroeville,AL,USA,520 Hornady Drive,36460,31.5149138,-87.3027625
253,Motion Industries,Authorized,(334) 262-5786,Montgomery,AL,USA,540 Trade Center St.,36108,32.371164,-86.346349
254,Motion Industries,Authorized,(256) 383-0862,Muscle Shoals,AL,USA,802 Second Street,35661,34.7594944,-87.6724389
255,Motion Industries,Authorized,(205) 654-2975,Pennington,AL,USA,150 Ida Drive,36916,32.2113628,-88.0499883
256,Motion Industries,Authorized,(205) 759-4261,Tuscaloosa,AL,USA,2022 62Nd Avenue,35401,33.195574,-87.615167
257,Motion Industries,Authorized,(870) 763-6880,Blytheville,AR,USA,3733 East Highway 18,72315,35.9288407,-89.8728416
258,Motion Industries,Authorized,(479) 646-6868,Fort Smith,AR,USA,5903 South 26Th Circle,72908,35.326788,-94.406253
259,Div. Of Motion Industries,Authorized,(870) 974-7100,Jonesboro,AR,USA,2201 Industrial Drive,72401,35.8189789,-90.6413079
260,Motion Industries,Authorized,(501) 568-3116,Little Rock,AR,USA,5312 W. 65Th Street,72209,34.6913137,-92.3359318
261,Ruston Industrial Supply,Authorized,(870) 534-1177,Pine Bluff,AR,USA,510 Commerce Road,71601,34.2243808,-91.9721864
262,Motion Industries,Authorized,(479) 968-3422,Russellville,AR,USA,1809 South Elmira Ave,72802,35.261275,-93.102704
263,Motion Industries,Authorized,(479) 756-6905,Springdale,AR,USA,"5301 Bleaux Ave, Suite A",72762,36.1792779,-94.188775
264,Div. Of Motion Industries,Authorized,(870) 672-4785,Stuttgart,AR,USA,215 East Second Street,72160,34.501439,-91.55059
265,Motion Industries,Authorized,(870) 774-2547,Texarkana,AR,USA,2301 East Ninth Street,71854,33.4307916,-94.0189786
266,Motion Industries Inc,Authorized,(860) 292-6091,East Windsor,CT,USA,256 Main Street,6088,41.9168314,-72.6140999
267,Motion Industries Inc,Authorized,(203) 294-5427,Wallingford,CT,USA,528 S Cherry St,6492,41.4411512,-72.8352774
268,Motion Industries,Authorized,(302) 462-3130,Delmar,DE,USA,38541 Sussex Hwy,19940,38.4660629,-75.5581848
269,Motion Industries,Authorized,(863) 533-0574,Bartow,FL,USA,1950 E Hwy 60 By-Pass,33830,27.8964147,-81.8431374
270,Motion Industries,Authorized,(863) 983-5500,Clewiston,FL,USA,326 S. W.C. Owen Avenue,33440,26.7513559,-80.9358501
271,Miller Bearings,Authorized,(321) 632-4091,Cocoa,FL,USA,821 N Cocoa Blvd Us Hwy 1,32922,28.37512,-80.7380716
272,Miller Bearings,Authorized,(386) 736-3636,Deland,FL,USA,813A Flightline Blvd #12,32724,29.0571346,-81.2871723
273,Miller Bearings,Authorized,(239) 936-6264,Fort Myers,FL,USA,11742 Metro Pkwy,33966,26.572406,-81.853984
274,Miller Bearings,Authorized,(772) 464-0490,Fort Pierce,FL,USA,601 North 39Th St,34947,27.455112,-80.3647079
275,Motion Industries,Authorized,(772) 464-5537,Fort Pierce,FL,USA,4240 Bandy Blvd,34981,27.393658,-80.369037
276,Miller Bearings,Authorized,(954) 491-6222,Ft Lauderdale,FL,USA,4621 Powerline Rd,33309,26.1844352,-80.1551981
277,Miller Bearings,Authorized,(386) 255-4509,Holly Hill,FL,USA,"495 Carswell Ave, Ste 120",32117,29.2333593,-81.036638
278,Miller Bearings,Authorized,(904) 737-9919,Jacksonville,FL,USA,"7818 Phillips Hwy, #201",32256,30.2287283,-81.5914848
279,Motion Industries,Authorized,(904) 757-5080,Jacksonville,FL,USA,401 Zoo Parkway,32226,30.4077469,-81.6414837
280,Miller Bearings,Authorized,(386) 755-4330,Lake City,FL,USA,"229 Nw Wilks Lane, #7",32055,30.195886,-82.700025
281,Miller Bearings,Authorized,(863) 701-9500,Lakeland,FL,USA,2505 Drane Field Rd,33811,27.997139,-81.995982
282,Miller Bearings,Authorized,(727) 536-5521,Largo,FL,USA,6480 126Th Ave N,33773,27.8860315,-82.7265813
283,Miller Bearings,Authorized,(305) 593-1724,Miami,FL,USA,6681 Nw 82Nd Ave,33166,25.8341955,-80.3299949
284,Miller Bearings,Authorized,(305) 592-7626,Miami,FL,USA,6661 Nw 82Nd Ave,33166,25.8340275,-80.3299903
285,Motion Industries,Authorized,(954) 704-8565,Miramar,FL,USA,2501 S.W. 160Th Ave. (Dykes Rd.) Suite 100,33027,25.9904176,-80.3547286
286,Miller Bearings,Authorized,(352) 732-4141,Ocala,FL,USA,1635 N Magnolia Ave,34475,29.204261,-82.135848
287,Miller Bearings,Authorized,(407) 849-0672,Orlando,FL,USA,5 S Westmoreland Dr,32805,28.5417831,-81.393135
288,Motion Industries,Authorized,(407) 298-0380,Orlando,FL,USA,2465 Silver Star Road,32804,28.5784871,-81.4140053
289,Miller Bearings,Authorized,(407) 849-6000,Orlando,FL,USA,1 S Westmoreland Dr,32805,28.5418355,-81.3930415
290,Motion Industries,Authorized,(850) 769-2492,Panama City,FL,USA,102 West 14Th Street,32401,30.1732923,-85.6613662
291,Motion Industries,Authorized,(850) 433-0021,Pensacola,FL,USA,3131 W. Navy Blvd,32505,30.4113299,-87.2527871
292,Miller Bearings,Authorized,(850) 584-2161,Perry,FL,USA,319 N Byron Butler Pkwy,32347,30.1185381,-83.5899992
293,Miller Bearings,Authorized,(813) 247-7455,Tampa,FL,USA,523 Us Hwy 301 South,33619,27.9456674,-82.3538788
294,Motion Industries,Authorized,(813) 626-1191,Tampa,FL,USA,1417 Massaro Blvd.,33619,27.956974,-82.3587631
295,Miller Bearings,Authorized,(561) 863-5111,West Palm Beach,FL,USA,1132 53Rd Ct North,33407,26.760157,-80.070928
296,Motion Industries,Authorized,(229) 888-0910,Albany,GA,USA,509 South Mock Road,31705,31.5627807,-84.0947205
297,Motion Industries,Authorized,(706) 353-7780,Athens,GA,USA,545 Olympic Drive,30601,33.9657002,-83.3481927
298,Motion Industries,Authorized,(706) 724-7401,Augusta,GA,USA,1247 Gordon Pk Rd,30901,33.453821,-81.973723
299,Motion Industries,Authorized,(770) 948-5300,Austell,GA,USA,8145 Troon Circle Suite G,30168,33.7553603,-84.5675551
300,Motion Industries,Authorized,(912) 265-0178,Brunswick,GA,USA,111 Key Drive,31520,31.201265,-81.495817
301,Motion Industries,Authorized,(770) 387-0131,Cartersville,GA,USA,415 Hamilton Crossing Rd Nw,30120,34.219766,-84.870652
302,Motion Industries,Authorized,(706) 324-0313,Columbus,GA,USA,506 Manchester Expressway Suite B-11,31904,32.5064157,-84.9855693
303,Motion Industries,Authorized,(706) 272-3900,Dalton,GA,USA,305 Lakeland Road Se,30721,34.7141046,-84.961127
304,Motion Industries,Authorized,(770) 532-4268,Gainesville,GA,USA,1013 Airport Street,30501,34.275687,-83.819165
305,Motion Industries,Authorized,(706) 883-7995,Lagrange,GA,USA,1906 Lukken Ind. Dr. W,30240,33.019537,-85.078328
306,Motion Industries,Authorized,(478) 784-0500,Macon,GA,USA,7444 Airport Drive,31206,32.709144,-83.648893
307,Motion Industries,Authorized,(770) 441-9909,Norcross,GA,USA,5695A Oakbrook Pkwy,30093,33.9184531,-84.1926957
308,Motion Industries,Authorized,(912) 236-1591,Savannah,GA,USA,1521 Telfair Road,31415,32.07561,-81.154255
309,Motion Industries,Authorized,(229) 244-4548,Valdosta,GA,USA,106 Hemlock Street,31601,30.822,-83.3043
310,Motion Industries,Authorized,(270) 842-6195,Bowling Green,KY,USA,331 Vanderbilt Drive,42101,36.9269737,-86.4053018
311,Motion Industries,Authorized,(502) 732-8114,Carrollton,KY,USA,35 Ladder Lane,41008,38.6657469,-85.1311157
312,Motion Industries,Authorized,(606) 878-6312,London,KY,USA,1680 Highway 192 East,40741,37.0973299,-84.1203607
313,Motion Industries,Authorized,(502) 964-4804,Louisville,KY,USA,3324 Gilmore Ind. Blvd.,40213,38.1769519,-85.70079
314,Motion Industries,Authorized,(270) 926-0330,Owensboro,KY,USA,1865 East Parrish Ave.,42303,37.766322,-87.0834859
315,Motion Industries,Authorized,(270) 443-6291,Paducah,KY,USA,2900 Powell St,42003,37.0583423,-88.5720424
316,Motion Industries,Authorized,(859) 873-7212,Versailles,KY,USA,550 Fielding Dr.,40383,38.0598009,-84.7136251
317,Motion Industries,Authorized,(318) 445-7446,Alexandria,LA,USA,6127 Masonic Drive,71301,31.2564,-92.477856
318,Motion Industries,Authorized,(225) 356-6131,Baton Rouge,LA,USA,2516 Weller Ave,70805,30.4850654,-91.1648054
319,Motion Industries,Authorized,(337) 837-2230,Broussard,LA,USA,600 La Flamme Road,70518,30.1405766,-91.9370538
320,Motion Industries,Authorized,(337) 348-5100,Deridder,LA,USA,170 Jodie Williams Rd,70634,30.9064788,-93.2977723
321,Drago Supply,Authorized,(225) 673-6403,Geismar,LA,USA,35610 Hwy. 30,70734,30.221905,-91.006412
322,Motion Industries,Authorized,(225) 644-6568,Gonzales,LA,USA,906 W. Orice Roth,70737,30.218941,-90.93279
323,Motion Industries,Authorized,(985) 871-8000,Harahan,LA,USA,5625 Salmen St,70123,29.9612647,-90.1945008
324,Motion Industries,Authorized,(504) 733-5400,Harahan,LA,USA,5625 Salmen St,70123,29.9612647,-90.1945008
325,Motion / Voorhies Supply,Authorized,(504) 818-0468,Harvey,LA,USA,1144 Mac Arthur Avenue,70058,29.8911773,-90.0836034
326,Motion / Voorhies Supply,Authorized,(985) 868-4554,Houma,LA,USA,5837 Hwy 311,70360,29.5861856,-90.7304612
327,Motion / Voorhies Supply,Authorized,(337) 235-7545,Lafayette,LA,USA,205 Monroe Street,70501,30.232111,-92.0177439
328,Motion / Voorhies Supply,Authorized,(337) 365-3680,New Iberia,LA,USA,410 W. St. Peter St.,70560,30.009418,-91.8228929
329,Motion / Voorhies Supply,Authorized,(337) 364-2431,New Iberia,LA,USA,401 W. St. Peter Street,70560,30.0088907,-91.823468
330,Motion Industries,Authorized,(318) 255-6721,Ruston,LA,USA,1308 Commerce Street,71270,32.5424801,-92.6190115
331,Motion Industries Inc,Authorized,(318) 687-2110,Shreveport,LA,USA,7280 W Bertkouns Ind.Loop,71129,32.4332403,-93.9001889
332,Motion Industries,Authorized,(318) 387-6875,West Monroe,LA,USA,105 Enterprise St,71292,32.499673,-92.164263
333,Motion Industries,Authorized,(337) 882-6004,Westlake,LA,USA,1011 Ppg Drive,70669,30.2280979,-93.2858683
334,Drago Supply,Authorized,(337) 882-0392,Westlake,LA,USA,1011 Ppg Drive,70669,30.2280979,-93.2858683
335,Motion Industries,Authorized,(207) 942-5571,Bangor,ME,USA,216 Perry Road,4401,44.7831901,-68.7981258
336,Motion Industries,Authorized,(207) 942-5571,Bangor,ME,USA,216 Perry Road,4401,44.7831901,-68.7981258
337,Motion Industries,Authorized,(207) 897-4877,Livermore Falls,ME,USA,38 Depot Street,4254,44.4729447,-70.1864244
338,Motion Industries Inc,Authorized,(207) 828-4727,Portland,ME,USA,"111 Pine Tree Industrial Park, Unit A",4102,43.6698639,-70.328526
339,Motion Industries Inc,Authorized,(207) 364-7933,Rumford,ME,USA,84 Valley Circle,4276,44.6073437,-70.6364892
340,"Motion Industries, Inc.",Authorized,(207) 785-4666,Union,ME,USA,437 Sennebec Road,4862,44.2267957,-69.2743418
341,Motion Industries Inc,Authorized,(207) 764-7270,Van Buren,ME,USA,287 Champlain St,4785,47.1619019,-67.956453
342,Motion Industries,Authorized,(410) 687-2700,Baltimore,MD,USA,8415-250 Kelso Dr,21221,39.3265205,-76.485059
343,Motion Industries Inc,Authorized,(508) 229-2688,Marlborough,MA,USA,"34 St Martin Drive, Ste 8",1752,42.3139288,-71.5814258
344,Motion Industries Inc,Authorized,(781) 376-5850,Woburn,MA,USA,"35 Industrial Pkwy, Ste 0",1801,42.5064793,-71.14155
345,Motion Industries,Authorized,(662) 328-8041,Columbus,MS,USA,285 Yorkville Road E.,39702,33.4789389,-88.38402
346,Lewis Supply,Authorized,(662) 287-6107,Corinth,MS,USA,2754 South Harper Road,38834,34.9088475,-88.5321761
347,Motion Industries,Authorized,(662) 226-6800,Grenada,MS,USA,60 Grady Road,38901,33.7886948,-89.8697269
348,Motion Industries,Authorized,(601) 373-3383,Jackson,MS,USA,510 B Hwy 80 W.,39204,32.2799344,-90.1688558
349,Motion Industries,Authorized,(601) 649-1321,Laurel,MS,USA,2025 Susie B. Ruffin Ave,39440,31.7141631,-89.1212301
350,Ruston Industrial Supply,Authorized,(601) 684-3666,Mccomb,MS,USA,2134 Airport Fernwood Rd,39648,31.1893645,-90.4676642
351,Motion Industries,Authorized,(601) 482-0433,Meridian,MS,USA,5124 Arundel Road,39301,32.353451,-88.7278369
352,Motion Industries,Authorized,(662) 844-2119,Tupelo,MS,USA,2211 Cliff Gookin Blvd,38801,34.2355129,-88.7654231
353,Motion Industries,Authorized,(662) 328-8041,Columbus,MS,USA,285 Yorkville Road E.,39702,33.4789389,-88.38402
354,Lewis Supply,Authorized,(662) 287-6107,Corinth,MS,USA,2754 South Harper Road,38834,34.9088475,-88.5321761
355,Motion Industries,Authorized,(662) 226-6800,Grenada,MS,USA,60 Grady Road,38901,33.7886948,-89.8697269
356,Motion Industries,Authorized,(601) 373-3383,Jackson,MS,USA,510 B Hwy 80 W.,39204,32.2799344,-90.1688558
357,Motion Industries,Authorized,(601) 649-1321,Laurel,MS,USA,2025 Susie B. Ruffin Ave,39440,31.7141631,-89.1212301
358,Ruston Industrial Supply,Authorized,(601) 684-3666,Mccomb,MS,USA,2134 Airport Fernwood Rd,39648,31.1893645,-90.4676642
359,Motion Industries,Authorized,(601) 482-0433,Meridian,MS,USA,5124 Arundel Road,39301,32.353451,-88.7278369
360,Motion Industries,Authorized,(662) 844-2119,Tupelo,MS,USA,2211 Cliff Gookin Blvd,38801,34.2355129,-88.7654231
361,Motion Industries Inc,Authorized,(603) 641-5649,Manchester,NH,USA,444 E. Ind Pk Dr. Unit# 2,3109,42.9763647,-71.4099304
362,"Motion Industries, Inc.",Authorized,(908) 241-1047,Kenilworth,NJ,USA,141 Market Street Unit 8,7033,40.6741625,-74.2821454
363,"Motion Industries, Inc.",Authorized,(732) 828-8711,New Brunswick,NJ,USA,12-D Jules Lane,8901,40.4723505,-74.4792833
364,"Motion Industries, Inc.",Authorized,(201) 288-8111,Teterboro,NJ,USA,600 Hollister Road,7608,40.8655748,-74.0544237
365,Motion Industries,Authorized,(609) 588-0555,Trenton,NJ,USA,9A South Gold Drive,8691,40.205033,-74.626276
366,Motion Industries,Authorized,(518) 438-1771,Albany,NY,USA,12 Jupiter Lane,12205,42.7194737,-73.8380694
367,Motion Industries,Authorized,(716) 743-0691,Amherst,NY,USA,25 John Glenn Dr Ste 108,14228,43.0343859,-78.8074796
368,Motion Industries,Authorized,(607) 734-2158,Elmira,NY,USA,1300 College Ave.,14901,42.1099188,-76.8188186
369,Motion Industries,Authorized,(315) 452-1775,North Syracuse,NY,USA,6211 East Taft Road,13212,43.125718,-76.092529
370,Motion Industries,Authorized,(914) 235-0029,Pelham,NY,USA,311 4Th Avenue,10803,40.9132384,-73.7974185
371,Motion Industries,Authorized,(518) 438-1771,Plattsburgh,NY,USA,327 Margaret St.,12901,44.7100005,-73.4510767
372,Motion Industries,Authorized,(585) 247-1121,Rochester,NY,USA,40 Hytec Circle,14606,43.1753948,-77.6887201
373,Motion Industries,Authorized,(518) 438-1771,Schenectady,NY,USA,1 River Road Bldg 273-A10,12345,42.8097011,-73.9535194
374,Motion Industries,Authorized,(828) 684-3180,Arden,NC,USA,3865 Sweeten Creek Road,28704,35.468486,-82.515
375,Motion Industries,Authorized,(704) 588-4100,Charlotte,NC,USA,11517-I Cordage Street,28273,35.1193808,-80.9379398
376,Motion Industries,Authorized,(252) 752-6400,Greenville,NC,USA,102D Staton Court,27834,35.649805,-77.3572499
377,Motion Industries,Authorized,(828) 324-5548,Hickory,NC,USA,1933 Tate Blvd. S.E.,28602,35.7284393,-81.3038967
378,Motion Industries,Authorized,(336) 993-2974,Kernersville,NC,USA,1249 Shields Road,27284,36.0966915,-80.071463
379,Motion Industries,Authorized,(910) 738-4221,Lumberton,NC,USA,1903 Godwin Avenue,28358,34.63071,-78.999482
380,Motion Industries,Authorized,(919) 779-7400,Raleigh,NC,USA,2012 Garner Sta. Blvd,27603,35.7252134,-78.6615162
381,Motion Industries,Authorized,(252) 972-3096,Rocky Mount,NC,USA,150 North Business Court,27804,36.008488,-77.776595
382,Motion Industries,Authorized,(910) 343-1311,Wilmington,NC,USA,3822 Us Hwy 421 Suite 120,28401,34.2979489,-77.9741129
383,Motion Industries,Authorized,(610) 366-9034,Allentown,PA,USA,7562 Penn Drive Suite 130,18106,40.5775018,-75.616338
384,Motion Industries,Authorized,(814) 941-8330,Altoona,PA,USA,1552 E Pleasant Valley Bd,16602,40.5349711,-78.3586271
385,Motion Industries,Authorized,(717) 393-3901,Lancaster,PA,USA,21 Abraso Street,17601,40.0620604,-76.3247196
386,Motion Industries,Authorized,(412) 856-8034,Monroeville,PA,USA,610 Beatty Road,15146,40.4514665,-79.7531171
387,Motion Industries,Authorized,(724) 654-6411,New Castle,PA,USA,315 Greenridge Drive C1,16105,41.0791235,-80.3641164
388,Motion Industries,Authorized,(412) 787-1990,Pittsburgh,PA,USA,1514 Parkway View Dr,15205,40.4310099,-80.1332776
389,Motion Industries,Authorized,(610) 376-7163,Reading,PA,USA,330 Bern Street,19601,40.362323,-75.9297955
390,Motion Industries,Authorized,(610) 616-8000,Sharon Hill,PA,USA,301 Henderson Drive,19079,39.9056089,-75.2609063
391,Motion Industries,Authorized,(570) 322-2439,Williamsport,PA,USA,2911 West Reach Road,17701,41.2261644,-77.0737724
392,Motion Industries,Authorized,(717) 848-1102,York,PA,USA,560 Maryland Ave.,17404,39.9642196,-76.7492772
393,Motion Industries,Authorized,(787) 251-1550,Toa Baja,PR,USA,Carr #2 KM 16.6 Suite 36,949,18.4377906,-66.2508052
394,Motion Industries Inc,Authorized,(401) 736-0515,Warwick,RI,USA,"114 Minnesota Ave, Unit 3",2888,41.7392754,-71.4296463
395,Motion Industries,Authorized,(843) 395-0095,Florence,SC,USA,205 Aberdeen Dr,29501,34.247171,-79.8211124
396,Motion Industries,Authorized,(864) 288-7503,Greenville,SC,USA,7 Idaho Street,29605,34.7417481,-82.3687042
397,Motion Industries,Authorized,(843) 554-9090,Hanahan,SC,USA,1001 Bankton Road,29410,32.9111508,-79.9864642
398,Motion Industries,Authorized,(864) 578-1470,Spartanburg,SC,USA,100 Corporate Drive Suite E,29303,34.9997599,-81.9348285
399,Motion Industries,Authorized,(803) 796-1071,West Columbia,SC,USA,105 Queen Parkway,29169,33.985706,-81.1061595
400,Motion Industries,Authorized,(423) 490-0852,Chattanooga,TN,USA,3740 Powers Court Suite 400,37416,35.0715588,-85.1956107
401,Motion Industries,Authorized,(931) 528-3797,Cookeville,TN,USA,1296 Boyd Farris Road,38506,36.1192357,-85.488008
402,Lewis Supply,Authorized,(731) 424-5656,Jackson,TN,USA,1665 North Parkway,38301,35.648696,-88.795371
403,Motion Industries,Authorized,(731) 423-4941,Jackson,TN,USA,31 Conalco Rd,38301,35.6475001,-88.7952947
404,Motion Industries,Authorized,(423) 349-5092,Kingsport,TN,USA,119 Regional Park Drive,37660,36.492063,-82.564662
405,Motion Industries,Authorized,(865) 546-1704,Knoxville,TN,USA,2956 Industrial Parkway,37921,35.9763738,-83.9682412
406,Motion Industries,Authorized,(901) 398-2000,Memphis,TN,USA,3345 One Place,38116,35.1493713,-89.9495255
407,Lewis Supply,Authorized,(901) 525-6871,Memphis,TN,USA,3272 Democrat Road,38118,35.0688221,-89.9557416
408,Motion Industries,Authorized,(423) 587-6156,Morristown,TN,USA,114 South Sugar Hollow Rd,37813,36.1950992,-83.3422354
409,Motion Industries,Authorized,(615) 895-0114,Murfreesboro,TN,USA,803 Park Ave,37129,35.8374334,-86.3966705
410,Motion Industries,Authorized,(615) 228-4020,Nashville,TN,USA,2614 Brick Church Pike,37207,36.2157469,-86.7809569
411,Motion Industries,Authorized,(931) 454-0907,Tullahoma,TN,USA,108 Johnston Street,37388,35.3652643,-86.1811044
412,Motion Industries,Authorized,(802) 622-3400,Barre,VT,USA,309 S Barre Rd,5641,44.1811071,-72.5023918
413,Motion Industries,Authorized,(757) 487-0311,Chesapeake,VA,USA,1220-D Fleetway Drive,23323,36.7792661,-76.372379
414,Motion Industries,Authorized,(540) 962-7161,Covington,VA,USA,104 East Riverside Dr Mead Storeroom,24426,37.7934585,-79.9939463
415,Motion Industries,Authorized,(540) 434-1919,Harrisonburg,VA,USA,881 Auto Motion Way,22801,38.4495688,-78.8689155
416,Motion Industries,Authorized,(434) 239-7111,Lynchburg,VA,USA,1030 Mcconville Road Unit 13,24502,37.3820965,-79.2193462
417,Motion Industries,Authorized,(703) 393-2314,Manassas,VA,USA,7433 Gateway Court,20109,38.8031082,-77.4989394
418,Motion Industries,Authorized,(804) 743-8000,Richmond,VA,USA,9203 Burge Avenue,23237,37.4008365,-77.4220567
419,Motion Industries,Authorized,(540) 362-7695,Roanoke,VA,USA,3719 Tom Andrews Road Suite 1,24019,37.31297,-79.972855
420,Motion Industries,Authorized,(540) 662-4800,Winchester,VA,USA,244 Airport Road Unit 3,22602,39.144679,-78.1555085
421,Motion Industries,Authorized,(304) 254-0443,Beaver,WV,USA,707 Industrial Park,25813,37.799619,-81.118162
422,Motion Industries Inc.,Authorized,(304) 525-6706,Huntington,WV,USA,215 15Th Street,25701,38.4244892,-82.4346371
423,Motion Industries,Authorized,(304) 744-0201,Nitro,WV,USA,"4200 1St Ave, Suite 200",25143,38.443818,-81.8330898
424,Motion Industries,Authorized,(907) 563-5565,Anchorage,AK,USA,611 E. Int. Airport Road,99518,61.174111,-149.872367
425,Motion Industries,Authorized,(907) 452-4488,Fairbanks,AK,USA,1895 Van Horn Road Unit A,99701,64.812253,-147.750368
426,Motion Industries,Authorized,(928) 526-3296,Flagstaff,AZ,USA,"3111 N Caden Ct, Ste 150",86004,35.211595,-111.598267
427,General Tool & Supply,Authorized,(928) 865-6294,Morenci,AZ,USA,4521 Us Hwy. 191,85540,33.0564148,-109.328321
428,Motion Industries,Authorized,(602) 252-3700,Phoenix,AZ,USA,"5545 W Latham, Ste 5C",85043,33.4600399,-112.179803
429,Motion Industries,Authorized,(602) 269-2331,Phoenix,AZ,USA,"5545 W Latham, Ste 5C",85043,33.4600399,-112.179803
430,General Tool & Supply,Authorized,(480) 829-3835,Tempe,AZ,USA,"2141 S. Industrial Park Avenue, Suite 101",85282,33.4048044,-111.9544485
431,General Tool & Supply,Authorized,(520) 624-6656,Tucson,AZ,USA,830 East 22Nd. Street,85713,32.2064793,-110.956681
432,Motion Industries,Authorized,(520) 882-6800,Tucson,AZ,USA,4050 East Columbia St,85714,32.172869,-110.905491
433,Motion Industries,Authorized,(928) 782-3919,Yuma,AZ,USA,4332 E 30Th Pl,85365,32.6725929,-114.5583051
434,Motion Industries,Authorized,(714) 780-1791,Anaheim,CA,USA,2935 East La Palma,92806,33.8499072,-117.8640893
435,Motion Industries,Authorized,(661) 324-6741,Bakersfield,CA,USA,2358 Cepheus Court,93308,35.4357799,-119.072109
436,Motion Industries,Authorized,(530) 961-9950,Chico,CA,USA,2700 Hegan Ln #168,95928,39.7035775,-121.8189558
437,Motion Industries,Authorized,(925) 689-9880,Concord,CA,USA,"2441 Sprig Court Suite A, B, C, D",94520,38.0132008,-122.0308296
438,Motion Industries,Authorized,(909) 357-9898,Fontana,CA,USA,10887 Commerce Way Ste.C,92337,34.0564158,-117.5126476
439,Motion Industries,Authorized,(559) 237-9131,Fresno,CA,USA,4057 W Shaw Ave #102,93722,36.8060441,-119.8633009
440,Motion Industries,Authorized,(310) 327-5070,Gardena,CA,USA,760 W 190Th Street,90248,33.8595821,-118.2879138
441,Motion Industries,Authorized,(408) 848-3099,Gilroy,CA,USA,6450 - A Automall Parkway (Formerly Chestnut St),95020,37.0018382,-121.560699
442,Motion Industries,Authorized,(510) 266-0200,Hayward,CA,USA,"28976 Hopkins St, Ste H",94545,37.618414,-122.0761673
443,Motion Industries,Authorized,(209) 334-2530,Lodi,CA,USA,1030 Victor Road,95240,38.1371228,-121.2536478
444,Motion Industries,Authorized,(323) 728-0281,Los Angeles,CA,USA,2041 Saybrook Avenue,90040,34.0056338,-118.1382063
445,Motion Industries,Authorized,(209) 529-0261,Modesto,CA,USA,448 Mitchell Road,95354,37.6325239,-120.955402
446,Motion Industries,Authorized,(805) 487-4877,Oxnard,CA,USA,858 East Fifth Street,93030,34.1963962,-119.1697151
447,Motion Industries,Authorized,(661) 948-8436,Palmdale,CA,USA,346 Grand Cypress Avenue Units 401,93551,34.594158,-118.1824793
448,Motion Industries,Authorized,(916) 455-1990,Sacramento,CA,USA,3473 Ramona Ave.,95826,38.5426885,-121.4112662
449,Motion Industries,Authorized,(831) 758-3345,Salinas,CA,USA,721 C Abbott Street,93901,36.660914,-121.6396452
450,Motion Industries,Authorized,(858) 565-0092,San Diego,CA,USA,5760 Chesapeake Court,92123,32.8382204,-117.1295108
451,Motion Industries,Authorized,(818) 365-0300,San Fernando,CA,USA,12995 Arroyo Street,91340,34.2879975,-118.4209985
452,Motion Industries,Authorized,(408) 645-3800,Santa Clara,CA,USA,2705 Lafayette Street,95050,37.3701378,-121.9498761
453,Motion Industries,Authorized,(209) 943-2801,Stockton,CA,USA,2001 Arch-Airport Rd #200,95206,37.9063366,-121.2431529
454,Motion Industries,Authorized,(209) 549-8155,Turlock,CA,USA,2574 Industrial Rowe,95380,37.486051,-120.875966
455,Motion Industries,Authorized,(707) 462-9766,Ukiah,CA,USA,2020A Industry Road,95482,39.178914,-123.219371
456,Motion Industries,Authorized,(760) 561-7270,Victorville,CA,USA,18499 Phantom West Suite 4,92394,34.5853622,-117.3745303
457,Motion Industries,Authorized,(559) 651-0111,Visalia,CA,USA,8000 W. Doe Avenue Suite F,93291,36.3466973,-119.3802555
458,Motion Industries,Authorized,(303) 399-1500,Denver,CO,USA,5885 Stapleton Dr N #C312,80216,39.7798388,-104.9183835
459,Motion Industries,Authorized,(970) 867-1045,Fort Morgan,CO,USA,515 E Burlington Avenue,80701,40.2468746,-103.7943235
460,Motion Industries,Authorized,(970) 336-6481,Greeley,CO,USA,"2403 4Th Avenue, Unit A",80631,40.3986639,-104.684792
461,Motion Industries,Authorized,(719) 546-0500,Pueblo,CO,USA,2923 Graneros Lane,81005,38.215784,-104.646636
462,General Tool & Supply,Authorized,(503) 226-3411,Caldwell,ID,USA,4317 Challenger Way,83605,43.655267,-116.644553
463,Motion Industries,Authorized,(208) 377-4334,Caldwell,ID,USA,4317 Challenger Way,83605,43.655267,-116.644553
464,General Tool & Supply,Authorized,(208) 798-3239,Lewiston,ID,USA,0116 Ninth Street,83501,46.4194913,-117.0217256
465,Motion Industries,Authorized,(208) 233-3894,Pocatello,ID,USA,2711 Garrett Way,83201,42.88604,-112.471456
466,Motion Industries,Authorized,(620) 227-6080,Dodge City,KS,USA,1304 Rath Avenue,67801,37.7311717,-100.0170112
467,Motion Industries,Authorized,(785) 826-9970,Salina,KS,USA,510 East Schilling Rd,67401,38.782933,-97.604478
468,Motion Industries,Authorized,(785) 233-6500,Topeka,KS,USA,"3526 Se 21St St, Unit A",66607,39.0317108,-95.6161444
469,Motion Industries,Authorized,(316) 942-6700,Wichita,KS,USA,1880 S. Florence Court,67209,37.660428,-97.391409
470,Motion Industries,Authorized,(406) 252-6641,Billings,MT,USA,340 North 22Nd Street,59101,45.787809,-108.500893
471,Motion Industries,Authorized,(406) 449-6318,Helena,MT,USA,3390 Us Highway 12 East,59601,46.5914507,-111.9659626
472,Motion Industries,Authorized,(406) 542-6692,Missoula,MT,USA,6090 Industrial Road,59808,46.922336,-114.08143
473,Motion Industries,Authorized,(402) 562-7406,Columbus,NE,USA,1952 E. 12Th Ave.,68601,41.4340359,-97.3132005
474,Motion Industries,Authorized,(308) 381-2279,Grand Island,NE,USA,3003 Frontage Road Suite 1,68803,40.914202,-98.376131
475,Motion Industries,Authorized,(402) 467-1153,Lincoln,NE,USA,4800 North 57Th Street,68507,40.8613036,-96.6422427
476,Motion Industries,Authorized,(402) 344-7323,Omaha,NE,USA,5725 F. Street,68117,41.2193797,-96.0024569
477,Motion Industries,Authorized,(702) 651-9490,Las Vegas,NV,USA,6180 N Hollywood Blvd. Suite 110,89115,36.2723748,-115.0250062
478,Motion Industries,Authorized,(775) 355-0555,Sparks,NV,USA,704 Spice Island Drive,89431,39.5140641,-119.7335867
479,Motion Industries,Authorized,(505) 884-2606,Albuquerque,NM,USA,3321 Matthew Ave Ne,87107,35.115701,-106.6078435
480,Motion Industries,Authorized,(505) 325-1809,Farmington,NM,USA,"1903 Fawcett Ct, Ste B",87401,36.7727135,-108.2320136
481,Motion Industries Inc,Authorized,(575) 762-4773,Roswell,NM,USA,3701 South Main Street,88203,33.3509184,-104.523005
482,Motion Industries,Authorized,(701) 223-5901,Bismarck,ND,USA,1112 South 12Th St Unit B,58504,46.793241,-100.774151
483,Motion Industries,Authorized,(701) 225-9221,Dickinson,ND,USA,226 Gta Drive,58601,46.8714653,-102.8460937
484,Motion Industries,Authorized,(701) 492-0444,Fargo,ND,USA,2311 45Th Street S,58104,46.8431921,-96.862816
485,Motion Industries,Authorized,(701) 234-9015,Fargo,ND,USA,201 27Th Street North,58102,46.8792298,-96.8215742
486,Motion Industries,Authorized,(701) 772-7177,Grand Forks,ND,USA,4434 16Th Ave. No. Circle,58203,47.9354316,-97.0919759
487,Motion Industries,Authorized,(918) 459-6919,Broken Arrow,OK,USA,13685 E 61St Street,74012,36.0754428,-95.8459148
488,Motion Industries,Authorized,(580) 746-2225,Millerton,OK,USA,100 West Maple,74750,33.9861006,-95.0126967
489,Motion Industries,Authorized,(918) 682-3611,Muskogee,OK,USA,3935 Tull Avenue,74403,35.7354878,-95.3154646
490,Motion Industries,Authorized,(405) 943-3316,Oklahoma City,OK,USA,4116 Will Rogers Pkwy. Suite 800,73108,35.4513829,-97.5931925
491,Motion Industries,Authorized,(541) 926-5831,Albany,OR,USA,2468 Sw Ferry Street,97322,44.6177303,-123.1041787
492,Motion Industries,Authorized,(541) 342-5946,Eugene,OR,USA,4685 Cloudburst Way,97402,44.0613562,-123.1769245
493,Motion Industries,Authorized,(541) 732-1552,Medford,OR,USA,586 Mason Way,97501,42.3481877,-122.8973456
494,Motion Ind.-Us Bearings,Authorized,(503) 239-5021,Portland,OR,USA,7739 Ne 21St Avenue,97211,45.579382,-122.6445391
495,General Tool & Supply,Authorized,(503) 226-3411,Portland,OR,USA,2705 Nw Nicolai Street,97210,45.5400748,-122.7073413
496,Motion Industries,Authorized,(503) 460-0403,Portland,OR,USA,910 Ne 57Th Avenue Suite 100,97213,45.5293277,-122.604684
497,Motion Industries,Authorized,(541) 784-9003,Roseburg,OR,USA,376 Industrial Drive,97470,43.1506619,-123.378837
498,Motion Industries,Authorized,(503) 585-7411,Salem,OR,USA,2375 Mcgilchrist St Se,97302,44.9171973,-123.0137079
499,Motion Industries,Authorized,(605) 334-5333,Sioux Falls,SD,USA,404 East 40Th St North,57104,43.5855289,-96.7229236
500,Motion Industries,Authorized,(605) 886-4114,Watertown,SD,USA,612 14Th Ave. Se,57201,44.8842608,-97.107281
501,Motion Industries,Authorized,(325) 267-9530,Abilene,TX,USA,1917 S Treadaway,79602,32.425709,-99.732406
502,Motion Industries,Authorized,(806) 372-5300,Amarillo,TX,USA,411 West 7Th,79101,35.2071517,-101.841178
503,Motion Industries,Authorized,(817) 277-5516,Arlington,TX,USA,615 Stadium Dr E,76011,32.7428653,-97.0836476
504,Motion Industries,Authorized,(325) 643-9923,Brownwood,TX,USA,1421 Burney Street,76801,31.6813644,-98.9889738
505,Motion Industries,Authorized,(979) 822-1656,Bryan,TX,USA,610 West Carson,77801,30.645219,-96.372234
506,Motion Industries,Authorized,(936) 756-1522,Conroe,TX,USA,113 Rhodes Street Bldg F,77301,30.2839817,-95.4584729
507,Motion Industries,Authorized,(361) 289-1773,Corpus Christi,TX,USA,917 Corn Products Road,78409,27.803235,-97.485517
508,Motion Industries Inc,Authorized,(214) 351-2211,Dallas,TX,USA,2221 W. Mockingbird Lane,75235,32.8258475,-96.8489536
509,Motion Industries,Authorized,(915) 779-3335,El Paso,TX,USA,901 Tony Lama Suite 4,79915,31.7622858,-106.3762585
510,Motion Industries Inc,Authorized,(817) 838-7878,Fort Worth,TX,USA,2589 N.E. 33Rd Street Suite A,76111,32.8046192,-97.3091744
511,Motion Industries,Authorized,(806) 250-5450,Friona,TX,USA,1402 West Highway 60,79035,34.5727667,-102.8149785
512,Motion Industries,Authorized,(972) 278-0220,Garland,TX,USA,"2364 Merritt Drive Suite C, Dock 8 And 9",75041,32.8778842,-96.649522
513,Motion Industries,Authorized,(409) 962-7575,Groves,TX,USA,4330 A North Link P.O. Box 876,77619,29.939463,-93.9293595
514,Div Of Motion Industries,Authorized,(713) 896-6350,Houston,TX,USA,4810 N Sam Houston Pkwy,77086,29.93923,-95.496152
515,Motion Industries,Authorized,(713) 688-9100,Houston,TX,USA,1200 Silber Road,77055,29.7915271,-95.4665186
516,Motion Industries Inc.,Authorized,(713) 956-0150,Houston,TX,USA,4810 N Sam Houston Pkwy W,77086,29.93923,-95.496152
517,Drago Supply,Authorized,(281) 471-7026,La Porte,TX,USA,430 Miller Cut-Off Road,77571,29.7013727,-95.0657394
518,Motion Industries Inc.,Authorized,(956) 718-2229,Laredo,TX,USA,"11204 Mcpherson Rd,Ste116",78045,27.6161766,-99.4779895
519,Motion Industries,Authorized,(903) 757-2383,Longview,TX,USA,2201 South Eastman Rd,75602,32.4675322,-94.7077671
520,Motion Industries Inc,Authorized,(936) 634-4428,Lufkin,TX,USA,2100 N. John Redditt Dr.,75904,31.353806,-94.764262
521,Motion Industries,Authorized,(432) 362-7315,Odessa,TX,USA,Div. Of Motion Ind. Inc 4000 N. County Road West,79764,31.8767671,-102.4001246
522,Motion Industries,Authorized,(979) 233-6476,Oyster Creek,TX,USA,2325 Fm523,77541,28.9931789,-95.3310579
523,Motion Industries,Authorized,(281) 542-1660,Pasadena,TX,USA,1465 E Sam Houston Pwy Suite 100,77503,29.6880986,-95.1513312
524,Motion Industries Inc,Authorized,(512) 989-5888,Pflugerville,TX,USA,16074 Central Commerce Dr Bldg A103,78660,30.4540961,-97.6603034
525,Drago Supply,Authorized,(409) 983-4911,Port Arthur,TX,USA,740 Houston Avenue,77640,29.8707668,-93.9408507
526,Motion Industries,Authorized,(210) 662-6772,San Antonio,TX,USA,4536 Macro,78218,29.4664556,-98.4013596
527,Motion Industries Inc,Authorized,(903) 892-4646,Sherman,TX,USA,1809 Texoma Drive,75090,33.657165,-96.599406
528,Motion Industries,Authorized,(254) 773-4224,Temple,TX,USA,3918 Range Road Suite A,76504,31.138801,-97.347455
529,Motion Industries Inc,Authorized,(903) 592-0873,Tyler,TX,USA,2500 West N.W. Loop 323,75702,32.3817617,-95.3295441
530,Motion Industries Inc,Authorized,(361) 576-0015,Victoria,TX,USA,2403 N Ben Wilson Street,77901,28.810812,-96.974723
531,Motion Industries,Authorized,(254) 772-1119,Waco,TX,USA,6500 Depot Drive,76712,31.507648,-97.187529
532,Motion Industries Inc,Authorized,(956) 546-5191,Weslaco,TX,USA,1240 Vo-Tech Dr. Suite D,78599,26.173614,-97.965367
533,Motion Industries Inc,Authorized,(940) 766-3328,Wichita Falls,TX,USA,1202 Indiana,76301,33.9086403,-98.4876776
534,Motion Industries,Authorized,(580) 248-2211,Wichita Falls,TX,USA,1202 Indiana,76301,33.9086403,-98.4876776
535,Motion Industries,Authorized,(435) 753-7310,Logan,UT,USA,918 West 700 North Suite 108,84321,41.7440444,-111.857261
536,Motion Industries,Authorized,(801) 732-1881,Ogden,UT,USA,2377 South 1900 West,84401,41.223214,-112.0266137
537,Motion Industries,Authorized,(801) 972-1036,Salt Lake City,UT,USA,"1415 S 3600 W, Ste 200",84104,40.7394102,-111.9763792
538,Motion Industries,Authorized,(360) 752-3303,Bellingham,WA,USA,3935 Irongate Road,98226,48.7839537,-122.4543374
539,Motion Industries,Authorized,(360) 425-4650,Longview,WA,USA,1121 Industrial Way,98632,46.1155772,-122.942451
540,Motion Industries,Authorized,(509) 765-4367,Moses Lake,WA,USA,"830 E. Broadway, Unit B",98837,47.137229,-119.270577
541,General Tool & Supply,Authorized,(425) 249-5660,Mukilteo,WA,USA,"11417 Cyrus Way, Unit 2",98275,47.8946289,-122.2911406
542,Motion Industries,Authorized,(509) 547-0721,Pasco,WA,USA,116 West Bonneville St,99301,46.233772,-119.08628
543,Motion Industries,Authorized,(206) 762-3800,Seattle,WA,USA,6141 4Th Avenue South,98108,47.5467005,-122.3302922
544,Motion Industries,Authorized,(509) 924-4800,Spokane Valley,WA,USA,9922 East Montgomery Units 18 And 19,99206,47.6098115,-117.2454313
545,Motion Industries,Authorized,(253) 572-7070,Tacoma,WA,USA,1011 East E Street,98421,47.2555403,-122.4296925
546,General Tool & Supply,Authorized,(206) 762-1500,Tukwila,WA,USA,355 Treck Drive Suite 110,98188,47.4535332,-122.2521395
547,Motion Industries,Authorized,(360) 750-1464,Vancouver,WA,USA,3112 Ne 112Th Avenue Suite C,98682,45.6452382,-122.5589778
548,Motion Industries,Authorized,(307) 682-8821,Gillette,WY,USA,5271 Hitt Boulevard,82718,44.2466742,-105.4838676
549,Motion Industries,Authorized,(307) 266-2966,Mills,WY,USA,146 Progress Circle,82644,42.8518303,-106.3650758
550,Motion Industries,Authorized,(307) 212-3300,Rock Springs,WY,USA,1130 Rockies Circle,82901,41.5874644,-109.2029043
551,Source 4 Industries,Authorized,Las Vegas,NV,USA,"4436 Lawrence St., Ste. A, N.",89081,36.2410819,-115.1205766,
552,Crown Forklift,Authorized,(559) 585-8000,Fresno,CA,USA,1355 E Fortune Ave #102,93725,36.688562,-119.7662204
553,Equipment Depot,Authorized,630-455-5703,Burr Ridge,IL,USA,"281 Shore Drive, Unit A",60527,41.7403233,-87.9367966
554,Equipment Depot,Authorized,630-562-4900,Itasca,IL,USA,751 Expressway Drive,60143,41.9795832,-88.0247299
555,Equipment Depot,Authorized,847-223-9110,Grayslake,IL,USA,1014 Progress Drive,60030,42.341127,-88.0213
556,Equipment Depot,Authorized,815-397-4450,Rockford,IL,USA,4414 Eleventh Street,61109,42.208457,-89.070819
557,Equipment Depot,Authorized,812-425-8164,Evansville,IN,USA,922 East Division Street,47711,37.9775296,-87.5492975
558,Equipment Depot,Authorized,270-782-9990,Bowling Green,KY,USA,6198 Nashville Road,42101,36.9260134,-86.4980586
559,Equipment Depot,Authorized,859-371-2200,Erlanger,KY,USA,1342 Jamike Drive,41018,39.0394808,-84.6276899
560,Equipment Depot,Authorized,270-886-4401,Hopkinsville,KY,USA,340 North Drive,42240,36.8692374,-87.5011793
561,Equipment Depot,Authorized,859-266-0483,Lexington,KY,USA,321 Saint George Drive,40502,38.0260295,-84.4571363
562,Equipment Depot,Authorized,502-636-2000,Louisville,KY,USA,"4820 Crittenden Drive, Suite 200",40209,38.1780491,-85.7522398
563,Equipment Depot,Authorized,270-898-2255,Paducah,KY,USA,6320 Kentucky Dam Road Paucah,42003,37.0093645,-88.5075509
564,Equipment Depot,Authorized,215-781-2009,Mount Laurel,NJ,USA,"823 East Gate Drive, Suite 5",8054,39.943925,-74.9461882
565,Equipment Depot,Authorized,513-891-0600,Cincinnati,OH,USA,4331 Rossplain Road,45236,39.222036,-84.389655
566,Equipment Depot,Authorized,937-376-0345,Dayton,OH,USA,1520 Spangler Road,45324,39.838973,-83.995664
567,Equipment Depot,Authorized,513-934-2121,Lebanon,OH,USA,1000 Kingsview Drive,45036,39.3890085,-84.2338605
568,Equipment Depot,Authorized,513-539-6480,Monroe,OH,USA,101 Lawton Avenue,45050,39.443073,-84.3477319
569,Equipment Depot,Authorized,610-266-0170,Allentown,PA,USA,810 Hickory Lane,18106,40.5910653,-75.5976757
570,Equipment Depot,Authorized,717-560-3131,Lancaster,PA,USA,1929 La Salle Avenue,17601,40.0466079,-76.252311
571,Equipment Depot,Authorized,717-918-8700,Mechanicsburg,PA,USA,741 Independence Avenue,17055,40.2025803,-76.9701966
572,Equipment Depot,Authorized,856-751-3650,Philadelphia,NJ,USA,"823 East Gate Drive, Suite 5",8054,39.943925,-74.9461882
573,Equipment Depot,Authorized,570-326-3538,Williamsport,PA,USA,2893 South Reach Road,17701,41.2239092,-77.0779866
574,Equipment Depot,Authorized,512-252-2300,Austin,TX,USA,15727 North Interstate 35,78660,30.4540977,-97.6647032
575,Equipment Depot,Authorized,409-842-0575,Beaumont,TX,USA,2040 West Cardinal Drive,77705,30.0359926,-94.1016139
576,Equipment Depot,Authorized,979-864-4800,Brazosport,TX,USA,113 West Murray,77515,29.1685304,-95.435853
577,Equipment Depot,Authorized,361-887-8901,Corpus Christi,TX,USA,921 North Port Avenue,78401,27.7994264,-97.413878
578,Equipment Depot,Authorized,972-438-8000,Dallas,TX,USA,1400 South Loop 12,75060,32.7991176,-96.9204262
579,Equipment Depot,Authorized,817-834-8841,Fort Worth,TX,USA,5108 Airport Freeway,76117,32.7817219,-97.271212
580,Equipment Depot,Authorized,713-869-6801,Houston,TX,USA,700 West Cavalcade,77009,29.8044892,-95.3801435
581,Equipment Depot,Authorized,903-757-2911,Longview,TX,USA,5111 West Loop 281 South,75603,32.4671107,-94.7601725
582,Equipment Depot,Authorized,956-461-5858,McAllen,TX,USA,900 West Expressway 83 Donna,78537,26.1865752,-98.08261
583,Equipment Depot,Authorized,210-225-1221,San Antonio,TX,USA,5250 North Loop 1604 East,78247,29.6019105,-98.3833338
584,Equipment Depot,Authorized,903-891-3000,Sherman,TX,USA,3405 US Highway 75,75090,33.5986513,-96.6046203
585,Equipment Depot,Authorized,254-662-4322,Waco,TX,USA,4100 South Interstate 35,76706,31.5071659,-97.1415705
586,Equipment Depot,Authorized,608-831-7000,Madison,WI,USA,4519 Helgesen Drive,53718,43.0668127,-89.3055693
587,Equipment Depot,Authorized,304-759-0400,Charleston,WV,USA,218 Smiley Drive,25177,38.444184,-81.849568
588,Equipment Depot,Authorized,304-295-0812,Vienna,WV,USA,"1170-46th Street, Unit #1 Viena",26105,39.3270191,-81.5484578
589,Sunstream Industries Pte Ltd,Authorized,(65) 6795 7555  ,Singapore,,SI,18 Tuas South Street 5,637796,1.3251,103.8198
590,Riekes Equipment,Authorized,701-281-3049,Fargo,ND,USA,1007 W. Main Ave,58078,46.876381,-96.91634
591,Riekes Equipment,Authorized,402-593-1181,Omaha,NE,USA,6703 L Street,68117,41.2118393,-96.0171817
592,Riekes Equipment,Authorized,402-464-0271,Lincoln,NE,USA,5801 N. 58th Street #2,68507,40.8696722,-96.6415012
593,Riekes Equipment,Authorized,308-384-1266,Grand Island,NE,USA,1806 S. North Road,68803,40.90404,-98.3974375
594,Riekes Equipment,Authorized,605-368-5610,Sioux Falls,SD,USA,47068 104th Street,57108,43.4587239,-96.79356
595,Riekes Equipment,Authorized,712-233-1494,Sioux City,IA,USA,3306 Northbrook Drive,51105,42.515058,-96.3658544
